<?xml version="1.0" encoding="UTF-8"?>
<svg width="14px" height="41px" viewBox="0 0 14 41" version="1.1" xmlns="http://www.w3.org/2000/svg" xmlns:xlink="http://www.w3.org/1999/xlink">
    <!-- Generator: Sketch 51.2 (57519) - http://www.bohemiancoding.com/sketch -->
    <title>scroll arrow</title>
    <desc>Created with Sketch.</desc>
    <defs></defs>
    <g id="Page-1" stroke="none" stroke-width="1" fill="none" fill-rule="evenodd">
        <g id="Desktop-HD-Full" transform="translate(-515.000000, -4016.000000)" fill="#68C3CD">
            <g id="scroll-arrow" transform="translate(522.000000, 4036.500000) rotate(90.000000) translate(-522.000000, -4036.500000) translate(501.500000, 4029.500000)">
                <path d="M40.7852904,7.6993737 L34.7735494,13.6993737 C34.37193,14.1002088 33.7715926,14.1002088 33.3699732,13.6993737 C32.9704455,13.2985386 32.9704455,12.6993737 33.3699732,12.2985386 L37.5786102,8 L1.00195682,8 C0.401619435,8 0,7.59916493 0,7 C0,6.39874739 0.401619435,6 1.00195682,6 L37.5786102,6 L33.2695683,1.6993737 C32.8700407,1.29853862 32.8700407,0.699373695 33.2695683,0.298538622 C33.470378,0.100208768 33.7715926,0 33.9724023,0 C34.1732121,0 34.4723349,0.100208768 34.6731446,0.298538622 L40.6848855,6.29853862 C41.0865049,6.6993737 41.0865049,7.29853862 40.7852904,7.6993737" id="Fill-1"></path>
            </g>
        </g>
    </g>
</svg>